^C:\USERS\ODMIN\DESKTOP\INFERNAL GALLOWS\INFERNAL GALLOWS\RELEASE\INFERNAL GALLOWS.EXE.INTERMEDIATE.MANIFEST
C:\WINDOWS\MICROSOFT.NET\FRAMEWORK\V2.0.50727\MSCORWKS.DLL
C:\WINDOWS\MICROSOFT.NET\FRAMEWORK\V4.0.30319\CLR.DLL
C:\PROGRAM FILES (X86)\MICROSOFT SDKS\WINDOWS\V7.0A\BIN\MT.EXE.CONFIG
C:\USERS\ODMIN\DESKTOP\INFERNAL GALLOWS\RELEASE\INFERNAL GALLOWS.EXE
