^C:\SEPRACTICE\INFERNAL GALLOWS\INFERNAL GALLOWS\DEBUG\INFERNAL GALLOWS_MANIFEST.RC
C:\SEPRACTICE\INFERNAL GALLOWS\INFERNAL GALLOWS\DEBUG\INFERNAL GALLOWS.EXE.EMBED.MANIFEST
^C:\SEPRACTISE\INFERNAL GALLOWS\INFERNAL GALLOWS\DEBUG\INFERNAL GALLOWS_MANIFEST.RC
C:\SEPRACTISE\INFERNAL GALLOWS\INFERNAL GALLOWS\DEBUG\INFERNAL GALLOWS.EXE.EMBED.MANIFEST
^C:\USERS\ODMIN\DESKTOP\INFERNAL GALLOWS\INFERNAL GALLOWS\DEBUG\INFERNAL GALLOWS_MANIFEST.RC
C:\USERS\ODMIN\DESKTOP\INFERNAL GALLOWS\INFERNAL GALLOWS\DEBUG\INFERNAL GALLOWS.EXE.EMBED.MANIFEST
